{
  "version": "1.0.0",
  "summary": "helpful summary of your project, less than 80 characters",
  "repository": "https://github.com/user/project.git",
  "license": "BSD3",
  "source-directories": [
    "src"
  ],
  "exposed-modules": [
    "Writeup"
  ],
  "native-modules": true,
  "dependencies": {
    "elm-lang/core": "3.0.0 <= v < 4.0.0",
    "evancz/elm-effects": "2.0.1 <= v < 3.0.0",
    "evancz/elm-html": "4.0.2 <= v < 5.0.0",
    "evancz/elm-markdown": "2.0.1 <= v < 3.0.0",
    "rtfeldman/elm-css": "2.2.0 <= v < 3.0.0",
    "rtfeldman/elm-css-helpers": "1.2.0 <= v < 2.0.0"
  },
  "elm-version": "0.16.0 <= v < 0.17.0"
}
